%YAML 1.1
%TAG !u! tag:unity3d.com,2011:
--- !u!1 &9104196328897479914
GameObject:
  m_ObjectHideFlags: 0
  m_CorrespondingSourceObject: {fileID: 0}
  m_PrefabInstance: {fileID: 0}
  m_PrefabAsset: {fileID: 0}
  serializedVersion: 6
  m_Component:
  - component: {fileID: 5837922523419121299}
  - component: {fileID: 42372528023348154}
  - component: {fileID: 854315745914629827}
  - component: {fileID: 3831803815725737128}
  m_Layer: 0
  m_Name: Ground9
  m_TagString: Untagged
  m_Icon: {fileID: 0}
  m_NavMeshLayer: 0
  m_StaticEditorFlags: 0
  m_IsActive: 1
--- !u!4 &5837922523419121299
Transform:
  m_ObjectHideFlags: 0
  m_CorrespondingSourceObject: {fileID: 0}
  m_PrefabInstance: {fileID: 0}
  m_PrefabAsset: {fileID: 0}
  m_GameObject: {fileID: 9104196328897479914}
  m_LocalRotation: {x: 0, y: 0, z: 0, w: 1}
  m_LocalPosition: {x: 0, y: 0, z: 0}
  m_LocalScale: {x: 15, y: 1, z: 100}
  m_Children:
  - {fileID: 9165160060802359919}
  - {fileID: 2006908591474720061}
  - {fileID: 6703176611191968799}
  m_Father: {fileID: 0}
  m_RootOrder: 0
  m_LocalEulerAnglesHint: {x: 0, y: 0, z: 0}
--- !u!33 &42372528023348154
MeshFilter:
  m_ObjectHideFlags: 0
  m_CorrespondingSourceObject: {fileID: 0}
  m_PrefabInstance: {fileID: 0}
  m_PrefabAsset: {fileID: 0}
  m_GameObject: {fileID: 9104196328897479914}
  m_Mesh: {fileID: 10202, guid: 0000000000000000e000000000000000, type: 0}
--- !u!23 &854315745914629827
MeshRenderer:
  m_ObjectHideFlags: 0
  m_CorrespondingSourceObject: {fileID: 0}
  m_PrefabInstance: {fileID: 0}
  m_PrefabAsset: {fileID: 0}
  m_GameObject: {fileID: 9104196328897479914}
  m_Enabled: 1
  m_CastShadows: 1
  m_ReceiveShadows: 1
  m_DynamicOccludee: 1
  m_MotionVectors: 1
  m_LightProbeUsage: 1
  m_ReflectionProbeUsage: 1
  m_RayTracingMode: 2
  m_RenderingLayerMask: 1
  m_RendererPriority: 0
  m_Materials:
  - {fileID: 2100000, guid: 5586557a04f73bb4395603c2ce4c6134, type: 2}
  m_StaticBatchInfo:
    firstSubMesh: 0
    subMeshCount: 0
  m_StaticBatchRoot: {fileID: 0}
  m_ProbeAnchor: {fileID: 0}
  m_LightProbeVolumeOverride: {fileID: 0}
  m_ScaleInLightmap: 1
  m_ReceiveGI: 1
  m_PreserveUVs: 0
  m_IgnoreNormalsForChartDetection: 0
  m_ImportantGI: 0
  m_StitchLightmapSeams: 1
  m_SelectedEditorRenderState: 3
  m_MinimumChartSize: 4
  m_AutoUVMaxDistance: 0.5
  m_AutoUVMaxAngle: 89
  m_LightmapParameters: {fileID: 0}
  m_SortingLayerID: 0
  m_SortingLayer: 0
  m_SortingOrder: 0
--- !u!65 &3831803815725737128
BoxCollider:
  m_ObjectHideFlags: 0
  m_CorrespondingSourceObject: {fileID: 0}
  m_PrefabInstance: {fileID: 0}
  m_PrefabAsset: {fileID: 0}
  m_GameObject: {fileID: 9104196328897479914}
  m_Material: {fileID: 0}
  m_IsTrigger: 0
  m_Enabled: 1
  serializedVersion: 2
  m_Size: {x: 1, y: 1, z: 1}
  m_Center: {x: 0, y: 0, z: 0}
--- !u!1001 &985781511949929595
PrefabInstance:
  m_ObjectHideFlags: 0
  serializedVersion: 2
  m_Modification:
    m_TransformParent: {fileID: 5837922523419121299}
    m_Modifications:
    - target: {fileID: 7879402182774772379, guid: 6915aa4e4a00d3f428c07fbe4d551a6e,
        type: 3}
      propertyPath: m_Name
      value: Obstacle2 (1)
      objectReference: {fileID: 0}
    - target: {fileID: 8259324140517109268, guid: 6915aa4e4a00d3f428c07fbe4d551a6e,
        type: 3}
      propertyPath: m_LocalPosition.x
      value: 0
      objectReference: {fileID: 0}
    - target: {fileID: 8259324140517109268, guid: 6915aa4e4a00d3f428c07fbe4d551a6e,
        type: 3}
      propertyPath: m_LocalPosition.y
      value: 1.5
      objectReference: {fileID: 0}
    - target: {fileID: 8259324140517109268, guid: 6915aa4e4a00d3f428c07fbe4d551a6e,
        type: 3}
      propertyPath: m_LocalPosition.z
      value: 0
      objectReference: {fileID: 0}
    - target: {fileID: 8259324140517109268, guid: 6915aa4e4a00d3f428c07fbe4d551a6e,
        type: 3}
      propertyPath: m_LocalRotation.x
      value: -0
      objectReference: {fileID: 0}
    - target: {fileID: 8259324140517109268, guid: 6915aa4e4a00d3f428c07fbe4d551a6e,
        type: 3}
      propertyPath: m_LocalRotation.y
      value: -0
      objectReference: {fileID: 0}
    - target: {fileID: 8259324140517109268, guid: 6915aa4e4a00d3f428c07fbe4d551a6e,
        type: 3}
      propertyPath: m_LocalRotation.z
      value: -0
      objectReference: {fileID: 0}
    - target: {fileID: 8259324140517109268, guid: 6915aa4e4a00d3f428c07fbe4d551a6e,
        type: 3}
      propertyPath: m_LocalRotation.w
      value: 1
      objectReference: {fileID: 0}
    - target: {fileID: 8259324140517109268, guid: 6915aa4e4a00d3f428c07fbe4d551a6e,
        type: 3}
      propertyPath: m_RootOrder
      value: 0
      objectReference: {fileID: 0}
    - target: {fileID: 8259324140517109268, guid: 6915aa4e4a00d3f428c07fbe4d551a6e,
        type: 3}
      propertyPath: m_LocalEulerAnglesHint.x
      value: 0
      objectReference: {fileID: 0}
    - target: {fileID: 8259324140517109268, guid: 6915aa4e4a00d3f428c07fbe4d551a6e,
        type: 3}
      propertyPath: m_LocalEulerAnglesHint.y
      value: 0
      objectReference: {fileID: 0}
    - target: {fileID: 8259324140517109268, guid: 6915aa4e4a00d3f428c07fbe4d551a6e,
        type: 3}
      propertyPath: m_LocalEulerAnglesHint.z
      value: 0
      objectReference: {fileID: 0}
    - target: {fileID: 8259324140517109268, guid: 6915aa4e4a00d3f428c07fbe4d551a6e,
        type: 3}
      propertyPath: m_LocalScale.x
      value: -0.33333334
      objectReference: {fileID: 0}
    - target: {fileID: 8259324140517109268, guid: 6915aa4e4a00d3f428c07fbe4d551a6e,
        type: 3}
      propertyPath: m_LocalScale.z
      value: 0.14999999
      objectReference: {fileID: 0}
    m_RemovedComponents: []
  m_SourcePrefab: {fileID: 100100000, guid: 6915aa4e4a00d3f428c07fbe4d551a6e, type: 3}
--- !u!4 &9165160060802359919 stripped
Transform:
  m_CorrespondingSourceObject: {fileID: 8259324140517109268, guid: 6915aa4e4a00d3f428c07fbe4d551a6e,
    type: 3}
  m_PrefabInstance: {fileID: 985781511949929595}
  m_PrefabAsset: {fileID: 0}
--- !u!1001 &3429900233899342347
PrefabInstance:
  m_ObjectHideFlags: 0
  serializedVersion: 2
  m_Modification:
    m_TransformParent: {fileID: 5837922523419121299}
    m_Modifications:
    - target: {fileID: 7879402182774772379, guid: 6915aa4e4a00d3f428c07fbe4d551a6e,
        type: 3}
      propertyPath: m_Name
      value: Obstacle2 (2)
      objectReference: {fileID: 0}
    - target: {fileID: 8259324140517109268, guid: 6915aa4e4a00d3f428c07fbe4d551a6e,
        type: 3}
      propertyPath: m_LocalPosition.x
      value: 0.33333334
      objectReference: {fileID: 0}
    - target: {fileID: 8259324140517109268, guid: 6915aa4e4a00d3f428c07fbe4d551a6e,
        type: 3}
      propertyPath: m_LocalPosition.y
      value: 1.5
      objectReference: {fileID: 0}
    - target: {fileID: 8259324140517109268, guid: 6915aa4e4a00d3f428c07fbe4d551a6e,
        type: 3}
      propertyPath: m_LocalPosition.z
      value: 0.29999998
      objectReference: {fileID: 0}
    - target: {fileID: 8259324140517109268, guid: 6915aa4e4a00d3f428c07fbe4d551a6e,
        type: 3}
      propertyPath: m_LocalRotation.x
      value: -0
      objectReference: {fileID: 0}
    - target: {fileID: 8259324140517109268, guid: 6915aa4e4a00d3f428c07fbe4d551a6e,
        type: 3}
      propertyPath: m_LocalRotation.y
      value: -0
      objectReference: {fileID: 0}
    - target: {fileID: 8259324140517109268, guid: 6915aa4e4a00d3f428c07fbe4d551a6e,
        type: 3}
      propertyPath: m_LocalRotation.z
      value: -0
      objectReference: {fileID: 0}
    - target: {fileID: 8259324140517109268, guid: 6915aa4e4a00d3f428c07fbe4d551a6e,
        type: 3}
      propertyPath: m_LocalRotation.w
      value: 1
      objectReference: {fileID: 0}
    - target: {fileID: 8259324140517109268, guid: 6915aa4e4a00d3f428c07fbe4d551a6e,
        type: 3}
      propertyPath: m_RootOrder
      value: 2
      objectReference: {fileID: 0}
    - target: {fileID: 8259324140517109268, guid: 6915aa4e4a00d3f428c07fbe4d551a6e,
        type: 3}
      propertyPath: m_LocalEulerAnglesHint.x
      value: 0
      objectReference: {fileID: 0}
    - target: {fileID: 8259324140517109268, guid: 6915aa4e4a00d3f428c07fbe4d551a6e,
        type: 3}
      propertyPath: m_LocalEulerAnglesHint.y
      value: 0
      objectReference: {fileID: 0}
    - target: {fileID: 8259324140517109268, guid: 6915aa4e4a00d3f428c07fbe4d551a6e,
        type: 3}
      propertyPath: m_LocalEulerAnglesHint.z
      value: 0
      objectReference: {fileID: 0}
    - target: {fileID: 8259324140517109268, guid: 6915aa4e4a00d3f428c07fbe4d551a6e,
        type: 3}
      propertyPath: m_LocalScale.x
      value: -0.33333334
      objectReference: {fileID: 0}
    - target: {fileID: 8259324140517109268, guid: 6915aa4e4a00d3f428c07fbe4d551a6e,
        type: 3}
      propertyPath: m_LocalScale.z
      value: 0.14999999
      objectReference: {fileID: 0}
    m_RemovedComponents: []
  m_SourcePrefab: {fileID: 100100000, guid: 6915aa4e4a00d3f428c07fbe4d551a6e, type: 3}
--- !u!4 &6703176611191968799 stripped
Transform:
  m_CorrespondingSourceObject: {fileID: 8259324140517109268, guid: 6915aa4e4a00d3f428c07fbe4d551a6e,
    type: 3}
  m_PrefabInstance: {fileID: 3429900233899342347}
  m_PrefabAsset: {fileID: 0}
--- !u!1001 &7586026809483006761
PrefabInstance:
  m_ObjectHideFlags: 0
  serializedVersion: 2
  m_Modification:
    m_TransformParent: {fileID: 5837922523419121299}
    m_Modifications:
    - target: {fileID: 7879402182774772379, guid: 6915aa4e4a00d3f428c07fbe4d551a6e,
        type: 3}
      propertyPath: m_Name
      value: Obstacle2
      objectReference: {fileID: 0}
    - target: {fileID: 8259324140517109268, guid: 6915aa4e4a00d3f428c07fbe4d551a6e,
        type: 3}
      propertyPath: m_LocalPosition.x
      value: -0.33333334
      objectReference: {fileID: 0}
    - target: {fileID: 8259324140517109268, guid: 6915aa4e4a00d3f428c07fbe4d551a6e,
        type: 3}
      propertyPath: m_LocalPosition.y
      value: 1.5
      objectReference: {fileID: 0}
    - target: {fileID: 8259324140517109268, guid: 6915aa4e4a00d3f428c07fbe4d551a6e,
        type: 3}
      propertyPath: m_LocalPosition.z
      value: -0.29999998
      objectReference: {fileID: 0}
    - target: {fileID: 8259324140517109268, guid: 6915aa4e4a00d3f428c07fbe4d551a6e,
        type: 3}
      propertyPath: m_LocalRotation.x
      value: -0
      objectReference: {fileID: 0}
    - target: {fileID: 8259324140517109268, guid: 6915aa4e4a00d3f428c07fbe4d551a6e,
        type: 3}
      propertyPath: m_LocalRotation.y
      value: -0
      objectReference: {fileID: 0}
    - target: {fileID: 8259324140517109268, guid: 6915aa4e4a00d3f428c07fbe4d551a6e,
        type: 3}
      propertyPath: m_LocalRotation.z
      value: -0
      objectReference: {fileID: 0}
    - target: {fileID: 8259324140517109268, guid: 6915aa4e4a00d3f428c07fbe4d551a6e,
        type: 3}
      propertyPath: m_LocalRotation.w
      value: 1
      objectReference: {fileID: 0}
    - target: {fileID: 8259324140517109268, guid: 6915aa4e4a00d3f428c07fbe4d551a6e,
        type: 3}
      propertyPath: m_RootOrder
      value: 1
      objectReference: {fileID: 0}
    - target: {fileID: 8259324140517109268, guid: 6915aa4e4a00d3f428c07fbe4d551a6e,
        type: 3}
      propertyPath: m_LocalEulerAnglesHint.x
      value: 0
      objectReference: {fileID: 0}
    - target: {fileID: 8259324140517109268, guid: 6915aa4e4a00d3f428c07fbe4d551a6e,
        type: 3}
      propertyPath: m_LocalEulerAnglesHint.y
      value: 0
      objectReference: {fileID: 0}
    - target: {fileID: 8259324140517109268, guid: 6915aa4e4a00d3f428c07fbe4d551a6e,
        type: 3}
      propertyPath: m_LocalEulerAnglesHint.z
      value: 0
      objectReference: {fileID: 0}
    - target: {fileID: 8259324140517109268, guid: 6915aa4e4a00d3f428c07fbe4d551a6e,
        type: 3}
      propertyPath: m_LocalScale.x
      value: -0.33333334
      objectReference: {fileID: 0}
    - target: {fileID: 8259324140517109268, guid: 6915aa4e4a00d3f428c07fbe4d551a6e,
        type: 3}
      propertyPath: m_LocalScale.z
      value: 0.14999999
      objectReference: {fileID: 0}
    m_RemovedComponents: []
  m_SourcePrefab: {fileID: 100100000, guid: 6915aa4e4a00d3f428c07fbe4d551a6e, type: 3}
--- !u!4 &2006908591474720061 stripped
Transform:
  m_CorrespondingSourceObject: {fileID: 8259324140517109268, guid: 6915aa4e4a00d3f428c07fbe4d551a6e,
    type: 3}
  m_PrefabInstance: {fileID: 7586026809483006761}
  m_PrefabAsset: {fileID: 0}
